{
  "items": [
    {
      "id": 1,
      "name": "Incredible tested pizza Pizza",
      "description": "Molestiae iure eum voluptas culpa et ut quasi.",
      "rating": 2,
      "image": "",
      "promo": true,
      "active": true
    },
    {
      "id": 2,
      "name": "Licensed Cotton Soap",
      "description": "Commodi repellat illo facilis.",
      "rating": 2,
      "image": "",
      "promo": true,
      "active": false
    },
    {
      "id": 3,
      "name": "Tasty Rubber Car",
      "description": "Explicabo accusamus optio facilis nobis officiis sed nisi omnis quia.",
      "rating": 5,
      "image": "",
      "promo": true,
      "active": true
    },
    {
      "id": 4,
      "name": "Generic Metal Shirt",
      "description": "Molestias atque repudiandae hic consequuntur voluptatem repellat magni.",
      "rating": 4,
      "image": "",
      "promo": false,
      "active": false
    },
    {
      "id": 5,
      "name": "Fantastic Fresh Ball",
      "description": "Aliquam delectus sapiente est cumque odio veniam reiciendis voluptatem distinctio.",
      "rating": 1,
      "image": "",
      "promo": true,
      "active": true
    },
    {
      "id": 6,
      "name": "Awesome Fresh Gloves",
      "description": "Ut dicta et minima.",
      "rating": 1,
      "image": "",
      "promo": true,
      "active": false
    },
    {
      "id": 7,
      "name": "Unbranded Concrete Sausages",
      "description": "Voluptatibus maxime odit fugit quo qui maxime.",
      "rating": 1,
      "image": "",
      "promo": true,
      "active": false
    },
    {
      "id": 8,
      "name": "Small Wooden Gloves",
      "description": "At facere non nisi autem.",
      "rating": 1,
      "image": "",
      "promo": false,
      "active": true
    },
    {
      "id": 9,
      "name": "Practical Concrete Mouse",
      "description": "Nulla dolor et at cumque perferendis dignissimos omnis.",
      "rating": 3,
      "image": "",
      "promo": false,
      "active": true
    },
    {
      "id": 10,
      "name": "Licensed Plastic Bike",
      "description": "Delectus asperiores debitis culpa.",
      "rating": 4,
      "image": "",
      "promo": false,
      "active": false
    },
    {
      "id": 11,
      "name": "Unbranded Fresh Salad",
      "description": "Aut nihil nemo rerum et.",
      "rating": 1,
      "image": "",
      "promo": false,
      "active": true
    },
    {
      "id": 12,
      "name": "Refined Metal Fish",
      "description": "Voluptas atque sit aut ea ea.",
      "rating": 3,
      "image": "",
      "promo": true,
      "active": false
    }
  ],
  "meta": {
    "totalItems": 100,
    "itemCount": 12,
    "itemsPerPage": 12,
    "totalPages": 9,
    "currentPage": 1
  },
  "links": {
    "first": "",
    "previous": "",
    "next": "",
    "last": ""
  }
}